{
  "project_info": {
    "project_number": "311369728099",
    "project_id": "gf-test-du-agent-mobile-app",
    "storage_bucket": "gf-test-du-agent-mobile-app.appspot.com"
  },
  "client": [
    {
      "client_info": {
        "mobilesdk_app_id": "1:311369728099:android:3338e6f047dc8e93aef856",
        "android_client_info": {
          "package_name": "com.example.duorder"
        }
      },
      "oauth_client": [
        {
          "client_id": "311369728099-gvtm90m6bjlr7at7rk9eihfaasnd701b.apps.googleusercontent.com",
          "client_type": 3
        }
      ],
      "api_key": [
        {
          "current_key": "AIzaSyD4RTrc3vNywhdbGloOq-TG_EtKPbWVhok"
        }
      ],
      "services": {
        "appinvite_service": {
          "other_platform_oauth_client": [
            {
              "client_id": "311369728099-gvtm90m6bjlr7at7rk9eihfaasnd701b.apps.googleusercontent.com",
              "client_type": 3
            }
          ]
        }
      }
    },
    {
      "client_info": {
        "mobilesdk_app_id": "1:311369728099:android:3e610666b6340b6eaef856",
        "android_client_info": {
          "package_name": "com.example.dupayg"
        }
      },
      "oauth_client": [
        {
          "client_id": "311369728099-gvtm90m6bjlr7at7rk9eihfaasnd701b.apps.googleusercontent.com",
          "client_type": 3
        }
      ],
      "api_key": [
        {
          "current_key": "AIzaSyD4RTrc3vNywhdbGloOq-TG_EtKPbWVhok"
        }
      ],
      "services": {
        "appinvite_service": {
          "other_platform_oauth_client": [
            {
              "client_id": "311369728099-gvtm90m6bjlr7at7rk9eihfaasnd701b.apps.googleusercontent.com",
              "client_type": 3
            }
          ]
        }
      }
    }
  ],
  "configuration_version": "1"
}